<svg width="14" height="14" viewBox="0 0 14 14" fill="none" xmlns="http://www.w3.org/2000/svg">
<path fill-rule="evenodd" clip-rule="evenodd" d="M5.84062 1.74947C6.31487 0.750176 7.68513 0.750179 8.15938 1.74947L9.21243 3.96835C9.27521 4.10062 9.39655 4.19229 9.53692 4.21351L11.8916 4.56932C12.9521 4.72956 13.3755 6.08478 12.6082 6.86262L10.9042 8.58978C10.8027 8.69273 10.7563 8.84107 10.7804 8.98646L11.1826 11.4252C11.3637 12.5236 10.2551 13.3611 9.30664 12.8426L7.20054 11.6912C7.075 11.6225 6.925 11.6225 6.79945 11.6912L4.69336 12.8426C3.74486 13.3611 2.63629 12.5236 2.81744 11.4252L3.21967 8.98646C3.24364 8.84107 3.19729 8.69273 3.09572 8.58977L1.39185 6.86262C0.624496 6.08478 1.04793 4.72956 2.10839 4.56932L4.46308 4.21351C4.60345 4.19229 4.72479 4.10062 4.78757 3.96835L5.84062 1.74947ZM7.38646 2.14616C7.22838 1.81306 6.77162 1.81306 6.61354 2.14616L5.56049 4.36503C5.37216 4.76185 5.00813 5.03689 4.58702 5.10053L2.23234 5.45634C1.87885 5.50975 1.7377 5.96149 1.99349 6.22077L3.69736 7.94792C4.00207 8.2568 4.14112 8.70183 4.06919 9.13798L3.66696 11.5768C3.60658 11.9428 3.9761 12.2221 4.29227 12.0492L6.39836 10.8977C6.77501 10.6918 7.22498 10.6918 7.60163 10.8977L9.70771 12.0492C10.0239 12.2221 10.3935 11.9428 10.333 11.5768L9.93077 9.13798C9.85889 8.70183 9.99792 8.2568 10.3026 7.94792L12.0065 6.22077C12.2623 5.96149 12.1211 5.50975 11.7676 5.45634L9.41298 5.10053C8.99187 5.03689 8.62784 4.76185 8.43951 4.36503L7.38646 2.14616Z" fill="#E4C77C"/>
</svg>
